…
```
## Warning: There were 6 warnings in `summarise()`.
## The first warning was:
## ℹ In argument: `across(c(height, mass), ~min(.x, na.rm = TRUE), .names =
##   "min_{.col}")`.
## ℹ In group 4: `species = "Chagrian"`.
## Caused by warning in `min()`:
## ! no non-missing arguments to min; returning Inf
## ℹ Run `dplyr::last_dplyr_warnings()` to see the 5 remaining warnings.
```

```
## # A tibble: 38 × 3
##    species   min_height min_mass
##    <chr>          <int>    <dbl>
##  1 Aleena            79       15
##  2 Besalisk         198      102
##  3 Cerean           198       82
##  4 Chagrian         196      Inf
##  5 Clawdite         168       55
##  6 Droid             96       32
##  7 Dug              112       40
##  8 Ewok              88       20
##  9 Geonosian        183       80
## 10 Gungan           196       66
## # ℹ 28 more rows
```
…
